"id","category"
"0","cs"
"1","stat"
"2","physics"
"3","cs"
"4","math"
"5","cs"
"6","physics"
"7","math"
"8","cs"
"9","math"
"10","stat"
"11","math"
"12","physics"
"13","cs"
"14","cs"
"15","cs"
"16","stat"
"17","physics"
"18","cs"
"19","stat"
"20","math"
"21","physics"
"22","stat"
"23","cs"
"24","cs"
"25","stat"
"26","physics"
"27","cs"
"28","math"
"29","physics"
"30","cs"
"31","math"
"32","physics"
"33","stat"
"34","cs"
"35","physics"
"36","cs"
"37","physics"
"38","stat"
"39","math"
"40","stat"
"41","cs"
"42","cs"
"43","math"
"44","cs"
"45","physics"
"46","physics"
"47","cs"
"48","physics"
"49","physics"
"50","stat"
"51","math"
"52","physics"
"53","cs"
"54","cs"
"55","cs"
"56","cs"
"57","math"
"58","physics"
"59","stat"
"60","math"
"61","stat"
"62","physics"
"63","stat"
"64","math"
"65","physics"
"66","stat"
"67","physics"
"68","math"
"69","stat"
"70","physics"
"71","physics"
"72","stat"
"73","physics"
"74","math"
"75","physics"
"76","stat"
"77","cs"
"78","physics"
"79","physics"
"80","math"
"81","math"
"82","physics"
"83","physics"
"84","physics"
"85","stat"
"86","math"
"87","stat"
"88","physics"
"89","physics"
"90","cs"
"91","cs"
"92","cs"
"93","physics"
"94","cs"
"95","physics"
"96","stat"
"97","cs"
"98","stat"
